trash/transcript
# vsim -do {vsim -voptargs=+acc=npr; run -all; exit} -c -voptargs=+acc=npr tb 
# ** Note: (vsim-3812) Design is being optimized...
# //  Questa Sim
# //  Version 10.0b win32 May  5 2011
# //
# //  Copyright 1991-2011 Mentor Graphics Corporation
# //  All Rights Reserved.
# //
# //  THIS WORK CONTAINS TRADE SECRET AND PROPRIETARY INFORMATION
# //  WHICH IS THE PROPERTY OF MENTOR GRAPHICS CORPORATION OR ITS
# //  LICENSORS AND IS SUBJECT TO LICENSE TERMS.
# //
# Loading sv_std.std
# Loading work.tb(fast)
# Loading work.operation1(fast)
# Loading work.multiplier(fast)
# Loading work.adder(fast)
# vsim -voptargs=+acc=npr 
# No design specified
#  run -all 
# RESET HIGH @                 5000
# RESET LOW @                35000
# storing a(hex):3f9ee155
# storing a(float):1.241252
# storing b(hex):3fc556fd
# storing b(float):1.541717
# storing c(hex):3ff13b77
# storing c(float):1.884627
# storing d(hex):3fd82023
# storing d(float):1.688481
# storing out(hex):40a310ec
# storing out(float):5.095816
# input_a=1.241252, input_b=1.541717, input_c=1.884627, input_d=1.688481 <------> result=5.095816, expected_result=5.095816
# storing a(hex):3fd69b94
# storing a(float):1.676623
# storing b(hex):3fd79812
# storing b(float):1.684328
# storing c(hex):3fd2a63b
# storing c(float):1.645698
# storing d(hex):3fc4576f
# storing d(float):1.533918
# storing out(hex):40ab25ae
# storing out(float):5.348350
# input_a=1.676623, input_b=1.684328, input_c=1.645698, input_d=1.533918 <------> result=5.348350, expected_result=5.348350
# storing a(hex):3f9e430a
# storing a(float):1.236421
# storing b(hex):3fa4a34a
# storing b(float):1.286233
# storing c(hex):3fec4bed
# storing c(float):1.846067
# storing d(hex):3fae63e7
# storing d(float):1.362424
# storing out(hex):40835fdc
# storing out(float):4.105452
# input_a=1.236421, input_b=1.286233, input_c=1.846067, input_d=1.362424 <------> result=4.105452, expected_result=4.105451
# storing a(hex):3ffed27d
# storing a(float):1.990799
# storing b(hex):3f978e1d
# storing b(float):1.184024
# storing c(hex):3ff4634a
# storing c(float):1.909280
# storing d(hex):3fed975e
# storing d(float):1.856182
# storing out(hex):40bcd604
# storing out(float):5.901125
# input_a=1.990799, input_b=1.184024, input_c=1.909280, input_d=1.856182 <------> result=5.901125, expected_result=5.901125
# storing a(hex):3fb3c2f1
# storing a(float):1.404387
# storing b(hex):3fafe047
# storing b(float):1.374032
# storing c(hex):3fa92d48
# storing c(float):1.321694
# storing d(hex):3fabb258
# storing d(float):1.341380
# storing out(hex):406cf6da
# storing out(float):3.702567
# input_a=1.404387, input_b=1.374032, input_c=1.321694, input_d=1.341380 <------> result=3.702567, expected_result=3.702567
# storing a(hex):3ff41f58
# storing a(float):1.907207
# storing b(hex):3fadbde5
# storing b(float):1.357358
# storing c(hex):3ff236a4
# storing c(float):1.892292
# storing d(hex):3fabace4
# storing d(float):1.341214
# storing out(hex):40a40e2c
# storing out(float):5.126730
# input_a=1.907207, input_b=1.357358, input_c=1.892292, input_d=1.341214 <------> result=5.126730, expected_result=5.126730
# storing a(hex):3fa9b947
# storing a(float):1.325967
# storing b(hex):3fbcae37
# storing b(float):1.474067
# storing c(hex):3fabb317
# storing c(float):1.341403
# storing d(hex):3fa47a72
# storing d(float):1.284987
# storing out(hex):406b686b
# storing out(float):3.678248
# input_a=1.325967, input_b=1.474067, input_c=1.341403, input_d=1.284987 <------> result=3.678248, expected_result=3.678248
# storing a(hex):3f8c8edd
# storing a(float):1.098110
# storing b(hex):3fe3e768
# storing b(float):1.780499
# storing c(hex):3faa6306
# storing c(float):1.331147
# storing d(hex):3fed32f6
# storing d(float):1.853118
# storing out(hex):408d80aa
# storing out(float):4.421956
# input_a=1.098110, input_b=1.780499, input_c=1.331147, input_d=1.853118 <------> result=4.421956, expected_result=4.421956
# storing a(hex):3fba1406
# storing a(float):1.453736
# storing b(hex):3f8a0715
# storing b(float):1.078341
# storing c(hex):3fa39b9d
# storing c(float):1.278186
# storing d(hex):3f907f44
# storing d(float):1.128884
# storing out(hex):4040accf
# storing out(float):3.010547
# input_a=1.453736, input_b=1.078341, input_c=1.278186, input_d=1.128884 <------> result=3.010547, expected_result=3.010547
# storing a(hex):3fa8955d
# storing a(float):1.317058
# storing b(hex):3f9e7373
# storing b(float):1.237898
# storing c(hex):3fa2d922
# storing c(float):1.272251
# storing d(hex):3ff5b095
# storing d(float):1.919451
# storing out(hex):4082512c
# storing out(float):4.072409
# input_a=1.317058, input_b=1.237898, input_c=1.272251, input_d=1.919451 <------> result=4.072409, expected_result=4.072409
# storing a(hex):3fd3e967
# storing a(float):1.655560
# storing b(hex):3fdda816
# storing b(float):1.731692
# storing c(hex):3ff9874b
# storing c(float):1.949441
# storing d(hex):3fc9136b
# storing d(float):1.570905
# storing out(hex):40bdbce4
# storing out(float):5.929308
# input_a=1.655560, input_b=1.731692, input_c=1.949441, input_d=1.570905 <------> result=5.929308, expected_result=5.929308
# storing a(hex):3fb05609
# storing a(float):1.377626
# storing b(hex):3fbd7a28
# storing b(float):1.480290
# storing c(hex):3fadef57
# storing c(float):1.358867
# storing d(hex):3faa929f
# storing d(float):1.332600
# storing out(hex):40766838
# storing out(float):3.850111
# input_a=1.377626, input_b=1.480290, input_c=1.358867, input_d=1.332600 <------> result=3.850111, expected_result=3.850111
# storing a(hex):3f9338b9
# storing a(float):1.150169
# storing b(hex):3fb01316
# storing b(float):1.375582
# storing c(hex):3f9cf60b
# storing c(float):1.226259
# storing d(hex):3fad9d3d
# storing d(float):1.356361
# storing out(hex):404fb4a6
# storing out(float):3.245401
# input_a=1.150169, input_b=1.375582, input_c=1.226259, input_d=1.356361 <------> result=3.245401, expected_result=3.245401
# storing a(hex):3fa2b4c8
# storing a(float):1.271142
# storing b(hex):3fab37f1
# storing b(float):1.337645
# storing c(hex):3fa6c0ce
# storing c(float):1.302759
# storing d(hex):3fbf9691
# storing d(float):1.496782
# storing out(hex):40699e3c
# storing out(float):3.650283
# input_a=1.271142, input_b=1.337645, input_c=1.302759, input_d=1.496782 <------> result=3.650283, expected_result=3.650283
# storing a(hex):3f9b0b46
# storing a(float):1.211282
# storing b(hex):3fab1790
# storing b(float):1.336657
# storing c(hex):3fb13b86
# storing c(float):1.384629
# storing d(hex):3fb1550b
# storing d(float):1.385408
# storing out(hex):406263d5
# storing out(float):3.537343
# input_a=1.211282, input_b=1.336657, input_c=1.384629, input_d=1.385408 <------> result=3.537343, expected_result=3.537343
# storing a(hex):3fe323f0
# storing a(float):1.774534
# storing b(hex):3fe7ce15
# storing b(float):1.810977
# storing c(hex):3feebb21
# storing c(float):1.865086
# storing d(hex):3fe1b578
# storing d(float):1.763350
# storing out(hex):40d013fc
# storing out(float):6.502439
# input_a=1.774534, input_b=1.810977, input_c=1.865086, input_d=1.763350 <------> result=6.502439, expected_result=6.502440
# storing a(hex):3f9bd3ca
# storing a(float):1.217401
# storing b(hex):3fdf25c3
# storing b(float):1.743340
# storing c(hex):3f95ea68
# storing c(float):1.171216
# storing d(hex):3fcc2f4f
# storing d(float):1.595194
# storing out(hex):407f66f8
# storing out(float):3.990660
# input_a=1.217401, input_b=1.743340, input_c=1.171216, input_d=1.595194 <------> result=3.990660, expected_result=3.990660
# storing a(hex):3fb5e9e3
# storing a(float):1.421200
# storing b(hex):3fc1db37
# storing b(float):1.514502
# storing c(hex):3ff58763
# storing c(float):1.918194
# storing d(hex):3fd15f40
# storing d(float):1.635719
# storing out(hex):40a947fe
# storing out(float):5.290038
# input_a=1.421200, input_b=1.514502, input_c=1.918194, input_d=1.635719 <------> result=5.290038, expected_result=5.290038
# storing a(hex):3fac7932
# storing a(float):1.347449
# storing b(hex):3fa86f14
# storing b(float):1.315890
# storing c(hex):3fa80496
# storing c(float):1.312640
# storing d(hex):3fa982e5
# storing d(float):1.324307
# storing out(hex):4060bb4e
# storing out(float):3.511432
# input_a=1.347449, input_b=1.315890, input_c=1.312640, input_d=1.324307 <------> result=3.511432, expected_result=3.511432
# storing a(hex):3fcfac4a
# storing a(float):1.622445
# storing b(hex):3fd751aa
# storing b(float):1.682180
# storing c(hex):3fed881c
# storing c(float):1.855716
# storing d(hex):3f80454d
# storing d(float):1.002115
# storing out(hex):4092d826
# storing out(float):4.588885
# input_a=1.622445, input_b=1.682180, input_c=1.855716, input_d=1.002115 <------> result=4.588885, expected_result=4.588885
# storing a(hex):3ff87a33
# storing a(float):1.941229
# storing b(hex):3fdc227f
# storing b(float):1.719803
# storing c(hex):3faf6b34
# storing c(float):1.370459
# storing d(hex):3fd61b64
# storing d(float):1.672711
# storing out(hex):40b43070
# storing out(float):5.630913
# input_a=1.941229, input_b=1.719803, input_c=1.370459, input_d=1.672711 <------> result=5.630913, expected_result=5.630913
# storing a(hex):3f9671d8
# storing a(float):1.175349
# storing b(hex):3fd00da2
# storing b(float):1.625416
# storing c(hex):3f9815b7
# storing c(float):1.188163
# storing d(hex):3fd4c2d5
# storing d(float):1.662196
# storing out(hex):4078aa3d
# storing out(float):3.885391
# input_a=1.175349, input_b=1.625416, input_c=1.188163, input_d=1.662196 <------> result=3.885391, expected_result=3.885391
# storing a(hex):3fc9678a
# storing a(float):1.573472
# storing b(hex):3fbb5aff
# storing b(float):1.463714
# storing c(hex):3fa7650e
# storing c(float):1.307771
# storing d(hex):3fb22a36
# storing d(float):1.391913
# storing out(hex):4083f30b
# storing out(float):4.123418
# input_a=1.573472, input_b=1.463714, input_c=1.307771, input_d=1.391913 <------> result=4.123418, expected_result=4.123418
# storing a(hex):3ff31d91
# storing a(float):1.899340
# storing b(hex):3fcbf47f
# storing b(float):1.593399
# storing c(hex):3ff5300e
# storing c(float):1.915529
# storing d(hex):3ffdcea0
# storing d(float):1.982868
# storing out(hex):40da6384
# storing out(float):6.824648
# input_a=1.899340, input_b=1.593399, input_c=1.915529, input_d=1.982868 <------> result=6.824648, expected_result=6.824648
# storing a(hex):3f80e2eb
# storing a(float):1.006925
# storing b(hex):3f9beb64
# storing b(float):1.218121
# storing c(hex):3f8c2840
# storing c(float):1.094978
# storing d(hex):3f8df51c
# storing d(float):1.109043
# storing out(hex):401c3844
# storing out(float):2.440934
# input_a=1.006925, input_b=1.218121, input_c=1.094978, input_d=1.109043 <------> result=2.440934, expected_result=2.440934
# storing a(hex):3fe9082e
# storing a(float):1.820562
# storing b(hex):3fafca4a
# storing b(float):1.373361
# storing c(hex):3ff4c399
# storing c(float):1.912219
# storing d(hex):3fa4b2f9
# storing d(float):1.286712
# storing out(hex):409ebe94
# storing out(float):4.960764
# input_a=1.820562, input_b=1.373361, input_c=1.912219, input_d=1.286712 <------> result=4.960764, expected_result=4.960764
# storing a(hex):3fc86874
# storing a(float):1.565688
# storing b(hex):3f931643
# storing b(float):1.149117
# storing c(hex):3fb61994
# storing c(float):1.422656
# storing d(hex):3f92e4e6
# storing d(float):1.147610
# storing out(hex):405ba2d1
# storing out(float):3.431813
# input_a=1.565688, input_b=1.149117, input_c=1.422656, input_d=1.147610 <------> result=3.431813, expected_result=3.431812
# storing a(hex):3fbfa45b
# storing a(float):1.497203
# storing b(hex):3fa54406
# storing b(float):1.291138
# storing c(hex):3fa5c69a
# storing c(float):1.295123
# storing d(hex):3fbf77a6
# storing d(float):1.495839
# storing out(hex):4077b482
# storing out(float):3.870392
# input_a=1.497203, input_b=1.291138, input_c=1.295123, input_d=1.495839 <------> result=3.870392, expected_result=3.870392
# storing a(hex):3fd0a651
# storing a(float):1.630076
# storing b(hex):3fd23065
# storing b(float):1.642102
# storing c(hex):3fc9de2c
# storing c(float):1.577093
# storing d(hex):3fac4585
# storing d(float):1.345872
# storing out(hex):409993fc
# storing out(float):4.799314
# input_a=1.630076, input_b=1.642102, input_c=1.577093, input_d=1.345872 <------> result=4.799314, expected_result=4.799314
# storing a(hex):3fd6cf2d
# storing a(float):1.678198
# storing b(hex):3fac1cfd
# storing b(float):1.344635
# storing c(hex):3fe11ab5
# storing c(float):1.758628
# storing d(hex):3fdfb360
# storing d(float):1.747662
# storing out(hex):40aa8fc2
# storing out(float):5.330049
# input_a=1.678198, input_b=1.344635, input_c=1.758628, input_d=1.747662 <------> result=5.330049, expected_result=5.330048
# storing a(hex):3fcb4b46
# storing a(float):1.588235
# storing b(hex):3f9c6959
# storing b(float):1.221965
# storing c(hex):3fcebfaf
# storing c(float):1.615225
# storing d(hex):3f896c98
# storing d(float):1.073627
# storing out(hex):406b31d0
# storing out(float):3.674915
# input_a=1.588235, input_b=1.221965, input_c=1.615225, input_d=1.073627 <------> result=3.674915, expected_result=3.674915
# storing a(hex):3fb7a294
# storing a(float):1.434649
# storing b(hex):3f8de1fd
# storing b(float):1.108459
# storing c(hex):3fbb4c7b
# storing c(float):1.463271
# storing d(hex):3f872216
# storing d(float):1.055728
# storing out(hex):4048a4ec
# storing out(float):3.135066
# input_a=1.434649, input_b=1.108459, input_c=1.463271, input_d=1.055728 <------> result=3.135066, expected_result=3.135066
# storing a(hex):3fb1a423
# storing a(float):1.387822
# storing b(hex):3ff5b68c
# storing b(float):1.919633
# storing c(hex):3faa6638
# storing c(float):1.331244
# storing d(hex):3fd83374
# storing d(float):1.689070
# storing out(hex):409d34a0
# storing out(float):4.912674
# input_a=1.387822, input_b=1.919633, input_c=1.331244, input_d=1.689070 <------> result=4.912674, expected_result=4.912674
# storing a(hex):3f87e35b
# storing a(float):1.061626
# storing b(hex):3f8357d1
# storing b(float):1.026117
# storing c(hex):3f94e10e
# storing c(float):1.163118
# storing d(hex):3f9e24e8
# storing d(float):1.235501
# storing out(hex):4021b052
# storing out(float):2.526387
# input_a=1.061626, input_b=1.026117, input_c=1.163118, input_d=1.235501 <------> result=2.526387, expected_result=2.526387
# storing a(hex):3fdd29e0
# storing a(float):1.727840
# storing b(hex):3fd4ef41
# storing b(float):1.663551
# storing c(hex):3fda0a4f
# storing c(float):1.703440
# storing d(hex):3fdee7ba
# storing d(float):1.741447
# storing out(hex):40bae7d7
# storing out(float):5.840801
# input_a=1.727840, input_b=1.663551, input_c=1.703440, input_d=1.741447 <------> result=5.840801, expected_result=5.840801
# storing a(hex):3ff5ad20
# storing a(float):1.919346
# storing b(hex):3febd487
# storing b(float):1.842423
# storing c(hex):3ffa85b6
# storing c(float):1.957206
# storing d(hex):3feb8af4
# storing d(float):1.840178
# storing out(hex):40e4694d
# storing out(float):7.137854
# input_a=1.919346, input_b=1.842423, input_c=1.957206, input_d=1.840178 <------> result=7.137854, expected_result=7.137854
# storing a(hex):3fed33d8
# storing a(float):1.853145
# storing b(hex):3fdc735c
# storing b(float):1.722270
# storing c(hex):3fcb5f43
# storing c(float):1.588845
# storing d(hex):3fd036eb
# storing d(float):1.626676
# storing out(hex):40b8d63c
# storing out(float):5.776152
# input_a=1.853145, input_b=1.722270, input_c=1.588845, input_d=1.626676 <------> result=5.776152, expected_result=5.776152
# storing a(hex):3f8cdcbe
# storing a(float):1.100487
# storing b(hex):3fd2f7a1
# storing b(float):1.648182
# storing c(hex):3f96dd0f
# storing c(float):1.178621
# storing d(hex):3fd25804
# storing d(float):1.643311
# storing out(hex):40700a8a
# storing out(float):3.750643
# input_a=1.100487, input_b=1.648182, input_c=1.178621, input_d=1.643311 <------> result=3.750643, expected_result=3.750643
# storing a(hex):3fbf9145
# storing a(float):1.496621
# storing b(hex):3f8f1741
# storing b(float):1.117897
# storing c(hex):3fd9883f
# storing c(float):1.699470
# storing d(hex):3fb5b78a
# storing d(float):1.419664
# storing out(hex):4082be6b
# storing out(float):4.085744
# input_a=1.496621, input_b=1.117897, input_c=1.699470, input_d=1.419664 <------> result=4.085744, expected_result=4.085744
# storing a(hex):3f8a5fb2
# storing a(float):1.081045
# storing b(hex):3fb8e09d
# storing b(float):1.444355
# storing c(hex):3f882878
# storing c(float):1.063735
# storing d(hex):3f842163
# storing d(float):1.032269
# storing out(hex):402a34d0
# storing out(float):2.659473
# input_a=1.081045, input_b=1.444355, input_c=1.063735, input_d=1.032269 <------> result=2.659473, expected_result=2.659473
# storing a(hex):3fadc9a3
# storing a(float):1.357716
# storing b(hex):3f95f811
# storing b(float):1.171633
# storing c(hex):3fa7250c
# storing c(float):1.305818
# storing d(hex):3fc3d2b0
# storing d(float):1.529867
# storing out(hex):4065a98a
# storing out(float):3.588473
# input_a=1.357716, input_b=1.171633, input_c=1.305818, input_d=1.529867 <------> result=3.588473, expected_result=3.588473
# storing a(hex):3fc68e5c
# storing a(float):1.551219
# storing b(hex):3f994998
# storing b(float):1.197558
# storing c(hex):3fd62abc
# storing c(float):1.673179
# storing d(hex):3fee1548
# storing d(float):1.860024
# storing out(hex):409f08d9
# storing out(float):4.969830
# input_a=1.551219, input_b=1.197558, input_c=1.673179, input_d=1.860024 <------> result=4.969830, expected_result=4.969830
# storing a(hex):3fa81a6a
# storing a(float):1.313306
# storing b(hex):3fa31868
# storing b(float):1.274182
# storing c(hex):3fab0442
# storing c(float):1.336067
# storing d(hex):3fb95571
# storing d(float):1.447920
# storing out(hex):4066e800
# storing out(float):3.607910
# input_a=1.313306, input_b=1.274182, input_c=1.336067, input_d=1.447920 <------> result=3.607910, expected_result=3.607910
# storing a(hex):3fd39590
# storing a(float):1.653002
# storing b(hex):3fd56984
# storing b(float):1.667283
# storing c(hex):3fd1226f
# storing c(float):1.633863
# storing d(hex):3f853585
# storing d(float):1.040696
# storing out(hex):408e9aa1
# storing out(float):4.456376
# input_a=1.653002, input_b=1.667283, input_c=1.633863, input_d=1.040696 <------> result=4.456376, expected_result=4.456376
# storing a(hex):3f844ba2
# storing a(float):1.033558
# storing b(hex):3fb0da86
# storing b(float):1.381669
# storing c(hex):3f8c6209
# storing c(float):1.096742
# storing d(hex):3fd63da7
# storing d(float):1.673756
# storing out(hex):4050e0b0
# storing out(float):3.263714
# input_a=1.033558, input_b=1.381669, input_c=1.096742, input_d=1.673756 <------> result=3.263714, expected_result=3.263714
# storing a(hex):3fc2dfbe
# storing a(float):1.522453
# storing b(hex):3ffb29a3
# storing b(float):1.962208
# storing c(hex):3fcb1085
# storing c(float):1.586442
# storing d(hex):3facf175
# storing d(float):1.351119
# storing out(hex):40a42fd9
# storing out(float):5.130841
# input_a=1.522453, input_b=1.962208, input_c=1.586442, input_d=1.351119 <------> result=5.130841, expected_result=5.130841
# storing a(hex):3f85eecd
# storing a(float):1.046350
# storing b(hex):3ffde5c8
# storing b(float):1.983575
# storing c(hex):3fe02622
# storing c(float):1.751164
# storing d(hex):3f8dd0c3
# storing d(float):1.107933
# storing out(hex):40808081
# storing out(float):4.015687
# input_a=1.046350, input_b=1.983575, input_c=1.751164, input_d=1.107933 <------> result=4.015687, expected_result=4.015687
# storing a(hex):3fd03e97
# storing a(float):1.626910
# storing b(hex):3fdfe854
# storing b(float):1.749278
# storing c(hex):3fd66c9b
# storing c(float):1.675189
# storing d(hex):3f833843
# storing d(float):1.025154
# storing out(hex):4092061b
# storing out(float):4.563245
# input_a=1.626910, input_b=1.749278, input_c=1.675189, input_d=1.025154 <------> result=4.563245, expected_result=4.563245
# storing a(hex):3fd44771
# storing a(float):1.658430
# storing b(hex):3fd99c3f
# storing b(float):1.700081
# storing c(hex):3fd5ee9d
# storing c(float):1.671344
# storing d(hex):3fd30de5
# storing d(float):1.648862
# storing out(hex):40b268b4
# storing out(float):5.575281
# input_a=1.658430, input_b=1.700081, input_c=1.671344, input_d=1.648862 <------> result=5.575281, expected_result=5.575281
# storing a(hex):3fd6f109
# storing a(float):1.679231
# storing b(hex):3ff4cba5
# storing b(float):1.912465
# storing c(hex):3faf57cb
# storing c(float):1.369867
# storing d(hex):3ffafc37
# storing d(float):1.960822
# storing out(hex):40bcb89a
# storing out(float):5.897534
# input_a=1.679231, input_b=1.912465, input_c=1.369867, input_d=1.960822 <------> result=5.897534, expected_result=5.897535
# storing a(hex):3fab1f31
# storing a(float):1.336889
# storing b(hex):3f8b3d4a
# storing b(float):1.087808
# storing c(hex):3f9d99db
# storing c(float):1.231258
# storing d(hex):3f813afd
# storing d(float):1.009613
# storing out(hex):402ca1c0
# storing out(float):2.697372
# input_a=1.336889, input_b=1.087808, input_c=1.231258, input_d=1.009613 <------> result=2.697372, expected_result=2.697372
# storing a(hex):3fdc1af7
# storing a(float):1.719573
# storing b(hex):3f88db15
# storing b(float):1.069186
# storing c(hex):3fde9acc
# storing c(float):1.739099
# storing d(hex):3fbe4c47
# storing d(float):1.486703
# storing out(hex):408d91f4
# storing out(float):4.424067
# input_a=1.719573, input_b=1.069186, input_c=1.739099, input_d=1.486703 <------> result=4.424067, expected_result=4.424066
# storing a(hex):3fe9d2f8
# storing a(float):1.826751
# storing b(hex):3fa776ce
# storing b(float):1.308313
# storing c(hex):3fa0c32b
# storing c(float):1.255956
# storing d(hex):3fdd4f23
# storing d(float):1.728978
# storing out(hex):4091f7a8
# storing out(float):4.561481
# input_a=1.826751, input_b=1.308313, input_c=1.255956, input_d=1.728978 <------> result=4.561481, expected_result=4.561482
# storing a(hex):3fa8d044
# storing a(float):1.318856
# storing b(hex):3fb9cf12
# storing b(float):1.451632
# storing c(hex):3fa10c4a
# storing c(float):1.258188
# storing d(hex):3fa4e19f
# storing d(float):1.288135
# storing out(hex):406240dc
# storing out(float):3.535209
# input_a=1.318856, input_b=1.451632, input_c=1.258188, input_d=1.288135 <------> result=3.535209, expected_result=3.535209
# storing a(hex):3ff91621
# storing a(float):1.945988
# storing b(hex):3ffc5176
# storing b(float):1.971236
# storing c(hex):3ff35494
# storing c(float):1.901019
# storing d(hex):3ff9f735
# storing d(float):1.952857
# storing out(hex):40f18ca4
# storing out(float):7.548418
# input_a=1.945988, input_b=1.971236, input_c=1.901019, input_d=1.952857 <------> result=7.548418, expected_result=7.548418
# storing a(hex):3fa01bf4
# storing a(float):1.250853
# storing b(hex):3fb8ca64
# storing b(float):1.443676
# storing c(hex):3fbff416
# storing c(float):1.499636
# storing d(hex):3fb0fda7
# storing d(float):1.382741
# storing out(hex):407848ad
# storing out(float):3.879436
# input_a=1.250853, input_b=1.443676, input_c=1.499636, input_d=1.382741 <------> result=3.879436, expected_result=3.879436
# storing a(hex):3fa1f228
# storing a(float):1.265203
# storing b(hex):3fc82789
# storing b(float):1.563707
# storing c(hex):3fb52e93
# storing c(float):1.415484
# storing d(hex):3fce85e2
# storing d(float):1.613461
# storing out(hex):40886436
# storing out(float):4.262233
# input_a=1.265203, input_b=1.563707, input_c=1.415484, input_d=1.613461 <------> result=4.262233, expected_result=4.262233
# storing a(hex):3fb378b1
# storing a(float):1.402121
# storing b(hex):3fdbecd1
# storing b(float):1.718165
# storing c(hex):3fb88acd
# storing c(float):1.441736
# storing d(hex):3fc20c8e
# storing d(float):1.516008
# storing out(hex):40930840
# storing out(float):4.594757
# input_a=1.402121, input_b=1.718165, input_c=1.441736, input_d=1.516008 <------> result=4.594757, expected_result=4.594757
# storing a(hex):3fa28a0f
# storing a(float):1.269838
# storing b(hex):3fb2b3ab
# storing b(float):1.396108
# storing c(hex):3fa21f56
# storing c(float):1.266581
# storing d(hex):3fca44ad
# storing d(float):1.580221
# storing out(hex):40718e4a
# storing out(float):3.774310
# input_a=1.269838, input_b=1.396108, input_c=1.266581, input_d=1.580221 <------> result=3.774310, expected_result=3.774309
# storing a(hex):3fd2f6cc
# storing a(float):1.648157
# storing b(hex):3fa7bd1a
# storing b(float):1.310458
# storing c(hex):3fd43ec8
# storing c(float):1.658166
# storing d(hex):3f871839
# storing d(float):1.055427
# storing out(hex):407a3c06
# storing out(float):3.909914
# input_a=1.648157, input_b=1.310458, input_c=1.658166, input_d=1.055427 <------> result=3.909914, expected_result=3.909913
# storing a(hex):3fdf2cf8
# storing a(float):1.743560
# storing b(hex):3f9e551e
# storing b(float):1.236973
# storing c(hex):3fc9d2e8
# storing c(float):1.576749
# storing d(hex):3fcc6967
# storing d(float):1.596967
# storing out(hex):40959790
# storing out(float):4.674751
# input_a=1.743560, input_b=1.236973, input_c=1.576749, input_d=1.596967 <------> result=4.674751, expected_result=4.674751
# storing a(hex):3fa0c811
# storing a(float):1.256106
# storing b(hex):3fba70e6
# storing b(float):1.456570
# storing c(hex):3fa06ac0
# storing c(float):1.253258
# storing d(hex):3fbfd706
# storing d(float):1.498749
# storing out(hex):406d4ea7
# storing out(float):3.707926
# input_a=1.256106, input_b=1.456570, input_c=1.253258, input_d=1.498749 <------> result=3.707926, expected_result=3.707926
# storing a(hex):3fad17d9
# storing a(float):1.352290
# storing b(hex):3fa36c10
# storing b(float):1.276735
# storing c(hex):3fabe073
# storing c(float):1.342787
# storing d(hex):3fa51e68
# storing d(float):1.289990
# storing out(hex):405d5b54
# storing out(float):3.458699
# input_a=1.352290, input_b=1.276735, input_c=1.342787, input_d=1.289990 <------> result=3.458699, expected_result=3.458699
# storing a(hex):3f9c2365
# storing a(float):1.219830
# storing b(hex):3fc734a8
# storing b(float):1.556294
# storing c(hex):3f9fa435
# storing c(float):1.247199
# storing d(hex):3fcf7e37
# storing d(float):1.621039
# storing out(hex):407ae41d
# storing out(float):3.920173
# input_a=1.219830, input_b=1.556294, input_c=1.247199, input_d=1.621039 <------> result=3.920173, expected_result=3.920173
# storing a(hex):3ff180bc
# storing a(float):1.886741
# storing b(hex):3fd3ade5
# storing b(float):1.653744
# storing c(hex):3fc79e24
# storing c(float):1.559514
# storing d(hex):3fcb8852
# storing d(float):1.590098
# storing out(hex):40b332ec
# storing out(float):5.599966
# input_a=1.886741, input_b=1.653744, input_c=1.559514, input_d=1.590098 <------> result=5.599966, expected_result=5.599966
# storing a(hex):3fb30301
# storing a(float):1.398529
# storing b(hex):3ff10c5b
# storing b(float):1.883190
# storing c(hex):3ff19928
# storing c(float):1.887486
# storing d(hex):3fc94dd4
# storing d(float):1.572688
# storing out(hex):40b34496
# storing out(float):5.602122
# input_a=1.398529, input_b=1.883190, input_c=1.887486, input_d=1.572688 <------> result=5.602122, expected_result=5.602122
# storing a(hex):3fef5571
# storing a(float):1.869795
# storing b(hex):3f914870
# storing b(float):1.135023
# storing c(hex):3ff757d6
# storing c(float):1.932368
# storing d(hex):3f972b22
# storing d(float):1.181004
# storing out(hex):408cf0cd
# storing out(float):4.404395
# input_a=1.869795, input_b=1.135023, input_c=1.932368, input_d=1.181004 <------> result=4.404395, expected_result=4.404395
# storing a(hex):3fdb4e6d
# storing a(float):1.713331
# storing b(hex):3fedb460
# storing b(float):1.857067
# storing c(hex):3fc2f0fa
# storing c(float):1.522979
# storing d(hex):3fd74daf
# storing d(float):1.682058
# storing out(hex):40b7cad5
# storing out(float):5.743510
# input_a=1.713331, input_b=1.857067, input_c=1.522979, input_d=1.682058 <------> result=5.743510, expected_result=5.743510
# storing a(hex):3f84280e
# storing a(float):1.032472
# storing b(hex):3fd58140
# storing b(float):1.668007
# storing c(hex):3fbc21fd
# storing c(float):1.469787
# storing d(hex):3faa9546
# storing d(float):1.332680
# storing out(hex):406b9452
# storing out(float):3.680928
# input_a=1.032472, input_b=1.668007, input_c=1.469787, input_d=1.332680 <------> result=3.680928, expected_result=3.680928
# storing a(hex):3f84234f
# storing a(float):1.032328
# storing b(hex):3f86af3d
# storing b(float):1.052223
# storing c(hex):3f9e74fe
# storing c(float):1.237945
# storing d(hex):3f88df17
# storing d(float):1.069308
# storing out(hex):401a3d2c
# storing out(float):2.409984
# input_a=1.032328, input_b=1.052223, input_c=1.237945, input_d=1.069308 <------> result=2.409984, expected_result=2.409984
# storing a(hex):3f84b08d
# storing a(float):1.036638
# storing b(hex):3fcb57ec
# storing b(float):1.588621
# storing c(hex):3ff750f7
# storing c(float):1.932158
# storing d(hex):3fc37d87
# storing d(float):1.527268
# storing out(hex):409320c2
# storing out(float):4.597749
# input_a=1.036638, input_b=1.588621, input_c=1.932158, input_d=1.527268 <------> result=4.597749, expected_result=4.597749
# storing a(hex):3fb739f2
# storing a(float):1.431456
# storing b(hex):3faf959b
# storing b(float):1.371753
# storing c(hex):3f896de2
# storing c(float):1.073666
# storing d(hex):3faf8d84
# storing d(float):1.371506
# storing out(hex):405be9c6
# storing out(float):3.436143
# input_a=1.431456, input_b=1.371753, input_c=1.073666, input_d=1.371506 <------> result=3.436143, expected_result=3.436143
# storing a(hex):3f87685d
# storing a(float):1.057872
# storing b(hex):3f9ec519
# storing b(float):1.240390
# storing c(hex):3f8b3584
# storing c(float):1.087571
# storing d(hex):3f90dcc5
# storing d(float):1.131737
# storing out(hex):4022c0d2
# storing out(float):2.543019
# input_a=1.057872, input_b=1.240390, input_c=1.087571, input_d=1.131737 <------> result=2.543019, expected_result=2.543019
# storing a(hex):3fbba439
# storing a(float):1.465949
# storing b(hex):3fbc483b
# storing b(float):1.470954
# storing c(hex):3fca157a
# storing c(float):1.578780
# storing d(hex):3fb03260
# storing d(float):1.376537
# storing out(hex):408a8c0a
# storing out(float):4.329595
# input_a=1.465949, input_b=1.470954, input_c=1.578780, input_d=1.376537 <------> result=4.329595, expected_result=4.329594
# storing a(hex):3fd85561
# storing a(float):1.690106
# storing b(hex):3fbc1989
# storing b(float):1.469529
# storing c(hex):3fcc6c06
# storing c(float):1.597047
# storing d(hex):3fa6221e
# storing d(float):1.297916
# storing out(hex):4091cec8
# storing out(float):4.556492
# input_a=1.690106, input_b=1.469529, input_c=1.597047, input_d=1.297916 <------> result=4.556492, expected_result=4.556492
# storing a(hex):3fa7b5f8
# storing a(float):1.310241
# storing b(hex):3fe406a9
# storing b(float):1.781453
# storing c(hex):3fabe0f5
# storing c(float):1.342803
# storing d(hex):3f972c0b
# storing d(float):1.181032
# storing out(hex):407ae1b0
# storing out(float):3.920025
# input_a=1.310241, input_b=1.781453, input_c=1.342803, input_d=1.181032 <------> result=3.920025, expected_result=3.920025
# storing a(hex):3ff97a65
# storing a(float):1.949048
# storing b(hex):3f99b56c
